Check continuous monitoring data — checkASRcont • AquaSensR
…
contdat <- utilASRimportcont(contpth)

checkASRcont(contdat)
#> Running checks on continuous data...
#> 	Checking column names... OK
#> 	Checking Date, Time are present... OK
#> 	Checking at least one parameter column is present... OK
#> 	Checking date format... OK
#> 	Checking time format... OK
#> 	Checking for missing values... OK
#> 	Checking parameter columns for non-numeric values... OK
#> 
#> All checks passed!
#> # A tibble: 927 × 9
#>    Date       Time    Water_Temp_C DO_pctsat DO_mg_l Conductivity_uS_cm TDS_mg_l
#>    <chr>      <chr>          <dbl>     <dbl>   <dbl>              <dbl>    <dbl>
#>  1 2024-08-14 13:56:…         24.2      76.9    6.44               410.      266
#>  2 2024-08-14 13:56:…         24.2      76.7    6.43               410.      266
#>  3 2024-08-14 13:56:…         24.2      76.6    6.42               410.      266
#>  4 2024-08-14 13:57:…         24.2      76.5    6.41               410.      266
#>  5 2024-08-14 13:57:…         24.2      76.3    6.4                409       266
#>  6 2024-08-14 13:57:…         24.2      76.3    6.39               409.      266
#>  7 2024-08-14 13:57:…         24.2      76.2    6.39               409.      266
#>  8 2024-08-14 13:57:…         24.2      76.1    6.38               409.      266
#>  9 2024-08-14 13:57:…         24.2      76.5    6.41               404.      262
#> 10 2024-08-14 13:58:…         24.2      77.6    6.5                399.      259
#> # ℹ 917 more rows
#> # ℹ 2 more variables: Salinity_ppt <dbl>, pH_SU <dbl>
…
