…
This correction formula is as follows: \$\$ \mathrm{adj} =
\mathrm{sensor} + (\mathrm{cal\\ref} - \mathrm{cal\\check}) \times
\frac{i - i\_{\min}}{i\_{\max} - i\_{\min}} \$\$

## Examples

``` r
contpth <- system.file("extdata/ExampleCont1.xlsx", package = "AquaSensR")
contdat <- readASRcont(contpth, runchk = FALSE)
t1 <- min(contdat$DateTime)
t2 <- max(contdat$DateTime)
utilASRdrift(contdat, "Water_Temp_C", cal_ref = 26, t1, t2)
#> # A tibble: 927 × 8
#>    DateTime            Water_Temp_C DO_pctsat DO_mg_l Conductivity_uS_cm
#>    <dttm>                     <dbl>     <dbl>   <dbl>              <dbl>
#>  1 2024-08-14 13:56:33         24.2      76.9    6.44               410.
#>  2 2024-08-14 13:56:43         24.2      76.7    6.43               410.
#>  3 2024-08-14 13:56:53         24.2      76.6    6.42               410.
#>  4 2024-08-14 13:57:03         24.2      76.5    6.41               410.
#>  5 2024-08-14 13:57:13         24.2      76.3    6.4                409 
#>  6 2024-08-14 13:57:23         24.2      76.3    6.39               409.
#>  7 2024-08-14 13:57:33         24.2      76.2    6.39               409.
#>  8 2024-08-14 13:57:43         24.2      76.1    6.38               409.
#>  9 2024-08-14 13:57:53         24.2      76.5    6.41               404.
#> 10 2024-08-14 13:58:03         24.2      77.6    6.5                399.
#> # ℹ 917 more rows
#> # ℹ 3 more variables: TDS_mg_l <dbl>, Salinity_ppt <dbl>, pH_SU <dbl>
```
