…
This function is called internally by
[`readASRcont`](https://massbays-tech.github.io/AquaSensR/reference/readASRcont.md)
and can also be used to prepare data for manual use with
[`checkASRcont`](https://massbays-tech.github.io/AquaSensR/reference/checkASRcont.md)
or
[`formASRcont`](https://massbays-tech.github.io/AquaSensR/reference/formASRcont.md).

## Examples

``` r
contpth <- system.file('extdata/ExampleCont1.xlsx', package = 'AquaSensR')

utilASRimportcont(contpth)
#> # A tibble: 927 × 10
#>    Site   Date       Time    `Water Temp_C` DO_pctsat DO_mg_l Conductivity_uS_cm
#>    <chr>  <chr>      <chr>            <dbl>     <dbl>   <dbl>              <dbl>
#>  1 sud096 2024-08-14 13:56:…           24.2      76.9    6.44               410.
#>  2 sud096 2024-08-14 13:56:…           24.2      76.7    6.43               410.
#>  3 sud096 2024-08-14 13:56:…           24.2      76.6    6.42               410.
#>  4 sud096 2024-08-14 13:57:…           24.2      76.5    6.41               410.
#>  5 sud096 2024-08-14 13:57:…           24.2      76.3    6.4                409 
#>  6 sud096 2024-08-14 13:57:…           24.2      76.3    6.39               409.
#>  7 sud096 2024-08-14 13:57:…           24.2      76.2    6.39               409.
#>  8 sud096 2024-08-14 13:57:…           24.2      76.1    6.38               409.
#>  9 sud096 2024-08-14 13:57:…           24.2      76.5    6.41               404.
#> 10 sud096 2024-08-14 13:58:…           24.2      77.6    6.5                399.
#> # ℹ 917 more rows
#> # ℹ 3 more variables: TDS_mg_l <dbl>, Salinity_ppt <dbl>, pH_SU <dbl>
```
