Flag continuous monitoring data with QC criteria — utilASRflag • AquaSensR
…
Underlying concepts and code for this function borrow heavily from those
in the ContDataQC package.  Any
credit for the approach should go to the
ContDataQC authors.

    Examples

contpth <- system.file('extdata/ExampleCont1.xlsx', package = 'AquaSensR')
dqopth <- system.file('extdata/ExampleDQO.xlsx', package = 'AquaSensR')

contdat <- readASRcont(contpth, tz = 'Etc/GMT+5', runchk = FALSE)
dqodat <- readASRdqo(dqopth, runchk = FALSE)

utilASRflag(contdat, dqodat, param = 'Water Temp_C')
#> # A tibble: 927 × 6
#>    DateTime            `Water Temp_C` gross_flag spike_flag roc_flag flat_flag
#>    <dttm>                       <dbl> <chr>      <chr>      <chr>    <chr>    
#>  1 2024-08-14 13:56:33           24.2 pass       pass       pass     pass     
#>  2 2024-08-14 13:56:43           24.2 pass       pass       pass     pass     
#>  3 2024-08-14 13:56:53           24.2 pass       pass       pass     pass     
#>  4 2024-08-14 13:57:03           24.2 pass       pass       pass     pass     
#>  5 2024-08-14 13:57:13           24.2 pass       pass       pass     pass     
#>  6 2024-08-14 13:57:23           24.2 pass       pass       pass     pass     
#>  7 2024-08-14 13:57:33           24.2 pass       pass       pass     pass     
#>  8 2024-08-14 13:57:43           24.2 pass       pass       pass     pass     
#>  9 2024-08-14 13:57:53           24.2 pass       pass       pass     pass     
#> 10 2024-08-14 13:58:03           24.2 pass       pass       pass     pass     
#> # ℹ 917 more rows
…
