AquaSensR inputs and checks • AquaSensR
…
Water Temp (C)
Water Temp_C
deg C

Water Temp (F)
Water Temp_F
deg F

The list above can also be viewed in R with the paramsASR dataset, which is included in the package and used for the checks.

paramsASR
#> # A tibble: 36 × 6
#>    `Parameter Group` Parameter uom   Label `WQX Parameter` `WQX Unit of measure`
#>    <chr>             <chr>     <chr> <chr> <chr>           <chr>                
#>  1 Air Temp          Air Temp… deg C Air … Temperature, a… deg C                
#>  2 Air Temp          Air Temp… deg F Air … Temperature, a… deg F                
#>  3 Barometric Press… Air BP_p… psi   Air … Barometric pre… psi                  
#>  4 Barometric Press… Air BP_m… mmHg  Air … Barometric pre… mmHg                 
#>  5 Chlorophyll       Chloroph… ug/l  Chlo… Chlorophyll a … ug/l                 
#>  6 Chlorophyll       Chloroph… RFU   Chlo… Chlorophyll a … RFU                  
#>  7 Chlorophyll       Pheophyt… ug/l  Pheo… Pheophytin a    ug/l                 
#>  8 Chlorophyll       Pheophyt… RFU   Pheo… Pheophytin a    RFU                  
#>  9 CO2               pCO2_ppm  ppm   pCO2… Partial Pressu… ppm                  
#> 10 Conductivity      Conducti… uS/cm Cond… Conductivity    uS/cm                
#> # ℹ 26 more rows
…
